03/07/2012 11:42:14, Data5.exe : Ecriture de la gestion des utilisateurs
16/07/2012 14:47:08, Data5.exe : Ecriture de la gestion des utilisateurs
17/07/2012 14:14:47, Data5.exe : Ecriture de la gestion des utilisateurs
17/07/2012 14:17:40, Data5.exe : Ecriture de la gestion des utilisateurs
17/07/2012 14:17:45, Data5.exe : Ecriture de la gestion des utilisateurs
17/07/2012 14:17:58, Data5.exe : Ecriture de la gestion des utilisateurs
17/07/2012 14:18:01, Data5.exe : Ecriture de la gestion des utilisateurs
17/07/2012 14:18:04, Data5.exe : Ecriture de la gestion des utilisateurs
17/07/2012 14:18:05, Data5.exe : Ecriture de la gestion des utilisateurs
17/07/2012 14:18:06, Data5.exe : Ecriture de la gestion des utilisateurs
17/07/2012 14:18:07, Data5.exe : Ecriture de la gestion des utilisateurs
17/07/2012 14:18:08, Data5.exe : Ecriture de la gestion des utilisateurs
17/07/2012 14:18:09, Data5.exe : Ecriture de la gestion des utilisateurs
17/07/2012 14:18:10, Data5.exe : Ecriture de la gestion des utilisateurs
17/07/2012 14:18:12, Data5.exe : Ecriture de la gestion des utilisateurs
17/07/2012 14:18:16, Data5.exe : Ecriture de la gestion des utilisateurs
17/07/2012 14:19:39, Data5.exe : Ecriture de la gestion des utilisateurs
17/07/2012 14:23:26, Data5.exe : Ecriture de la gestion des utilisateurs
18/07/2012 10:00:57, Data5.exe : Ecriture de la gestion des utilisateurs
18/07/2012 10:09:18, Data5.exe : Ecriture de la gestion des utilisateurs
18/07/2012 10:10:15, Data5.exe : Ecriture de la gestion des utilisateurs
23/11/2012 18:45:39, Data5.exe : Ecriture de la gestion des utilisateurs
27/11/2012 00:10:06, Data5.exe : Ecriture de la gestion des utilisateurs
27/11/2012 09:24:34, Data5.exe : Ecriture de la gestion des utilisateurs
28/11/2012 16:23:08, Data5.exe : Ecriture de la gestion des utilisateurs
28/11/2012 16:23:15, Data5.exe : Ecriture de la gestion des utilisateurs
28/11/2012 18:38:04, Data5.exe : Ecriture de la gestion des utilisateurs
28/11/2012 18:38:23, Data5.exe : Ecriture de la gestion des utilisateurs
28/11/2012 18:38:59, Data5.exe : Ecriture de la gestion des utilisateurs
28/11/2012 18:39:01, Data5.exe : Ecriture de la gestion des utilisateurs
28/11/2012 18:39:23, Data5.exe : Ecriture de la gestion des utilisateurs
28/11/2012 18:42:18, Data5.exe : Ecriture de la gestion des utilisateurs
28/11/2012 18:42:19, Data5.exe : Ecriture de la gestion des utilisateurs
28/11/2012 18:43:53, Data5.exe : Ecriture de la gestion des utilisateurs
28/11/2012 18:44:55, Data5.exe : Ecriture de la gestion des utilisateurs
28/11/2012 18:44:57, Data5.exe : Ecriture de la gestion des utilisateurs
28/11/2012 18:44:58, Data5.exe : Ecriture de la gestion des utilisateurs
02/12/2012 16:35:28, Data5.exe : Ecriture de la gestion des utilisateurs
02/12/2012 16:38:41, Data5.exe : Ecriture de la gestion des utilisateurs
02/12/2012 16:38:42, Data5.exe : Ecriture de la gestion des utilisateurs
02/12/2012 16:42:05, Data5.exe : Ecriture de la gestion des utilisateurs
03/12/2012 16:27:01, Data5.exe : Ecriture de la gestion des utilisateurs
03/12/2012 16:29:18, Data5.exe : Ecriture de la gestion des utilisateurs
06/12/2012 12:46:13, Data5.exe : Ecriture de la gestion des utilisateurs
06/12/2012 15:54:11, Data5.exe : Ecriture de la gestion des utilisateurs
07/12/2012 16:41:06, Data5.exe : Ecriture de la gestion des utilisateurs
11/12/2012 14:11:35, Data5.exe : Ecriture de la gestion des utilisateurs
11/12/2012 14:13:21, Data5.exe : Ecriture de la gestion des utilisateurs
11/12/2012 14:13:37, Data5.exe : Ecriture de la gestion des utilisateurs
11/12/2012 14:54:34, Data5.exe : Ecriture de la gestion des utilisateurs
11/12/2012 15:02:41, Data5.exe : Ecriture de la gestion des utilisateurs
11/12/2012 15:19:17, Data5.exe : Ecriture de la gestion des utilisateurs
11/12/2012 18:38:14, Data5.exe : Ecriture de la gestion des utilisateurs
12/12/2012 08:44:15, Data5.exe : Ecriture de la gestion des utilisateurs
12/12/2012 08:44:28, Data5.exe : Ecriture de la gestion des utilisateurs
12/12/2012 08:49:41, Data5.exe : Ecriture de la gestion des utilisateurs
12/12/2012 08:49:58, Data5.exe : Ecriture de la gestion des utilisateurs
12/12/2012 09:50:33, Data5.exe : Ecriture de la gestion des utilisateurs
12/12/2012 11:35:20, Data5.exe : Ecriture de la gestion des utilisateurs
12/12/2012 11:45:56, Data5.exe : Ecriture de la gestion des utilisateurs
12/12/2012 12:01:20, Data5.exe : Ecriture de la gestion des utilisateurs
22/01/2013 15:54:48, Data5.exe : Ecriture de la gestion des utilisateurs
29/01/2013 16:48:57, Data5.exe : Ecriture de la gestion des utilisateurs
29/01/2013 16:49:38, Data5.exe : Ecriture de la gestion des utilisateurs
29/01/2013 16:49:49, Data5.exe : Ecriture de la gestion des utilisateurs
29/01/2013 16:50:16, Data5.exe : Ecriture de la gestion des utilisateurs
29/01/2013 16:50:49, Data5.exe : Ecriture de la gestion des utilisateurs
29/01/2013 16:50:59, Data5.exe : Ecriture de la gestion des utilisateurs
29/01/2013 17:04:51, Data5.exe : Ecriture de la gestion des utilisateurs
29/01/2013 17:04:56, Data5.exe : Ecriture de la gestion des utilisateurs
29/01/2013 17:17:00, Data5.exe : Ecriture de la gestion des utilisateurs
29/01/2013 17:18:06, Data5.exe : Ecriture de la gestion des utilisateurs
29/01/2013 17:18:09, Data5.exe : Ecriture de la gestion des utilisateurs
29/01/2013 17:19:01, Data5.exe : Ecriture de la gestion des utilisateurs
29/01/2013 17:19:35, Data5.exe : Ecriture de la gestion des utilisateurs
29/01/2013 17:20:02, Data5.exe : Ecriture de la gestion des utilisateurs
29/01/2013 17:20:10, Data5.exe : Ecriture de la gestion des utilisateurs
29/01/2013 18:28:23, Data5.exe : Ecriture de la gestion des utilisateurs
29/01/2013 18:28:26, Data5.exe : Ecriture de la gestion des utilisateurs
29/01/2013 18:28:31, Data5.exe : Ecriture de la gestion des utilisateurs
29/01/2013 18:28:35, Data5.exe : Ecriture de la gestion des utilisateurs
29/01/2013 18:28:38, Data5.exe : Ecriture de la gestion des utilisateurs
29/01/2013 18:28:41, Data5.exe : Ecriture de la gestion des utilisateurs
29/01/2013 18:28:43, Data5.exe : Ecriture de la gestion des utilisateurs
29/01/2013 18:29:33, Data5.exe : Ecriture de la gestion des utilisateurs
29/01/2013 18:29:41, Data5.exe : Ecriture de la gestion des utilisateurs
29/01/2013 18:29:47, Data5.exe : Ecriture de la gestion des utilisateurs
29/01/2013 18:29:50, Data5.exe : Ecriture de la gestion des utilisateurs
29/01/2013 18:29:52, Data5.exe : Ecriture de la gestion des utilisateurs
29/01/2013 18:29:55, Data5.exe : Ecriture de la gestion des utilisateurs
29/01/2013 18:29:57, Data5.exe : Ecriture de la gestion des utilisateurs
29/01/2013 18:29:59, Data5.exe : Ecriture de la gestion des utilisateurs
29/01/2013 18:30:00, Data5.exe : Ecriture de la gestion des utilisateurs
29/01/2013 18:30:02, Data5.exe : Ecriture de la gestion des utilisateurs
29/01/2013 18:33:40, Data5.exe : Ecriture de la gestion des utilisateurs
29/01/2013 20:23:12, Data5.exe : Ecriture de la gestion des utilisateurs
05/02/2013 10:33:28, Data5.exe : Ecriture de la gestion des utilisateurs
05/02/2013 10:33:31, Data5.exe : Ecriture de la gestion des utilisateurs
05/02/2013 10:33:33, Data5.exe : Ecriture de la gestion des utilisateurs
05/02/2013 10:33:35, Data5.exe : Ecriture de la gestion des utilisateurs
05/02/2013 10:33:51, Data5.exe : Ecriture de la gestion des utilisateurs
05/02/2013 10:33:53, Data5.exe : Ecriture de la gestion des utilisateurs
05/02/2013 10:33:55, Data5.exe : Ecriture de la gestion des utilisateurs
05/02/2013 10:33:59, Data5.exe : Ecriture de la gestion des utilisateurs
05/02/2013 10:34:12, Data5.exe : Ecriture de la gestion des utilisateurs
06/02/2013 12:08:33, Data5.exe : Ecriture de la gestion des utilisateurs
06/02/2013 12:22:04, Data5.exe : Ecriture de la gestion des utilisateurs
27/02/2013 08:35:31, Data5.exe : Ecriture de la gestion des utilisateurs
