<?xml version="1.0" encoding="UTF-8" standalone="no"?>
<svg
   xmlns:dc="http://purl.org/dc/elements/1.1/"
   xmlns:cc="http://creativecommons.org/ns#"
   xmlns:rdf="http://www.w3.org/1999/02/22-rdf-syntax-ns#"
   xmlns:svg="http://www.w3.org/2000/svg"
   xmlns="http://www.w3.org/2000/svg"
   xmlns:sodipodi="http://sodipodi.sourceforge.net/DTD/sodipodi-0.dtd"
   xmlns:inkscape="http://www.inkscape.org/namespaces/inkscape"
   width="50"
   height="50"
   id="svg3113"
   version="1.1"
   inkscape:version="1.0.1 (3bc2e813f5, 2020-09-07)"
   sodipodi:docname="deselection_totale_50x50.svg"
   inkscape:export-filename="D:\svn\SerieNDev\serien-lib-swing\src\main\resources\images\deselection_totale_50x50.png"
   inkscape:export-xdpi="96"
   inkscape:export-ydpi="96">
  <defs
     id="defs3115" />
  <sodipodi:namedview
     id="base"
     pagecolor="#ffffff"
     bordercolor="#666666"
     borderopacity="1.0"
     inkscape:pageopacity="0.0"
     inkscape:pageshadow="2"
     inkscape:zoom="15.598776"
     inkscape:cx="25"
     inkscape:cy="25"
     inkscape:document-units="px"
     inkscape:current-layer="g264"
     showgrid="false"
     inkscape:window-width="2560"
     inkscape:window-height="1377"
     inkscape:window-x="-8"
     inkscape:window-y="-8"
     inkscape:window-maximized="1"
     units="px"
     showguides="true"
     inkscape:guide-bbox="true"
     borderlayer="true"
     inkscape:document-rotation="0">
    <sodipodi:guide
       position="0,25"
       orientation="0,1"
       id="guide4700"
       inkscape:label=""
       inkscape:color="rgb(0,0,255)" />
    <sodipodi:guide
       position="0,40"
       orientation="0,1"
       id="guide4702"
       inkscape:label=""
       inkscape:color="rgb(0,0,255)" />
    <sodipodi:guide
       position="0,10"
       orientation="0,1"
       id="guide4704"
       inkscape:label=""
       inkscape:color="rgb(0,0,255)" />
    <sodipodi:guide
       position="25,50"
       orientation="-1,0"
       id="guide857"
       inkscape:label=""
       inkscape:locked="false"
       inkscape:color="rgb(0,0,255)" />
  </sodipodi:namedview>
  <metadata
     id="metadata3118">
    <rdf:RDF>
      <cc:Work
         rdf:about="">
        <dc:format>image/svg+xml</dc:format>
        <dc:type
           rdf:resource="http://purl.org/dc/dcmitype/StillImage" />
        <dc:title></dc:title>
      </cc:Work>
    </rdf:RDF>
  </metadata>
  <g
     inkscape:label="Calque 1"
     inkscape:groupmode="layer"
     id="layer1"
     transform="translate(0,-1002.3622)">
    <g
       id="g264"
       transform="matrix(-1.4245942,0,0,-1.4245942,17.185931,1037.4911)"
       style="fill:#ab944f;fill-opacity:1;stroke:#646464;stroke-width:0.601554;stroke-miterlimit:4;stroke-dasharray:none;stroke-opacity:1">
      <path
         d="M -5.4851192,17.639339 C -9.6631828,17.169147 -13.011589,13.813679 -13.48812,9.6161483 -14.113552,4.1277154 -9.8674079,-0.54428484 -4.5448474,-0.60412865 V -3.0662192 c 0,-0.1367399 0.1701849,-0.2094534 0.2850625,-0.1240312 l 5.04600802,3.72307381 c 0.0851005,0.0641873 0.0851005,0.18807367 0,0.25219664 L -4.2597849,4.5080775 c -0.1148615,0.085583 -0.2850625,0.00804 -0.2850625,-0.1238702 V 1.92638 c -3.7398362,0.059844 -6.7350996,3.2571601 -6.4798306,7.0785409 0.216998,3.2870681 2.8846491,5.9543491 6.156481,6.1637861 3.4675308,0.222275 6.415997,-2.265475 6.9435717,-5.5568218 0.097809,-0.6112434 0.6296958,-1.0557929 1.2423549,-1.0557929 0.761593,0 1.357232,0.6796456 1.2381074,1.436221 -0.7403098,4.6891007 -5.05027154,8.2069997 -10.0409562,7.6470427 z"
         id="path2"
         style="fill:#ab944f;fill-opacity:1;stroke-width:0.422264;stroke:#646464" />
    </g>
  </g>
</svg>
